#
#THIS IS THE GEOMETRY FILE FOR THE HEXAGONAL HGCAL WAFER
#
# HPK 6 inch 136 pads
#
# padNumber	xPosition	yPosition  type    optional

1	-0.50	+6.06	3	SIZE,INVERT:1:1.08
2	+0.50	+6.06	3	SIZE:1.08
3	-2.00	+5.20	2	SIZE:1.08,ROTATE:120
4	-1.00	+5.20	0	SIZE:1.08
5	+0.00	+5.20	0	SIZE:1.08
6	+1.00	+5.20	0	SIZE:1.08
7	+2.00	+5.20	2	SIZE:1.08,ROTATE:60
8	-3.50	+4.33	2	SIZE:1.08,ROTATE:120
9	-2.50	+4.33	0	SIZE:1.08
10	-1.50	+4.33	0	SIZE:1.08
11	-0.50	+4.33	0	SIZE:1.08
12	+0.50	+4.33	0	SIZE:1.08
13	+1.50	+4.33	0	SIZE:1.08
14	+2.50	+4.33	0	SIZE:1.08
15	+3.50	+4.33	2	SIZE:1.08,ROTATE:60
16	-5.00	+3.46	3	SIZE:1.08,ROTATE:60
17	-4.00	+3.46	0	SIZE:1.08
18	-3.00	+3.46	0	SIZE:1.08
19	-2.00	+3.46	0	SIZE:1.08
20	-1.00	+3.46	0	SIZE:1.08
21	+0.00	+3.46	0	SIZE:1.08
22	+1.00	+3.46	0	SIZE:1.08
23	+2.00	+3.46	0	SIZE:1.08
24	+3.00	+3.46	0	SIZE:1.08
25	+4.00	+3.46	0	SIZE:1.08
26	+5.00	+3.46	3	SIZE:1.08,INVERT:1,ROTATE:300
27	-5.50	+2.60	3	SIZE:1.08,INVERT:1,ROTATE:60
28	-4.50	+2.60	0	SIZE:1.08
29	-3.50	+2.60	0	SIZE:1.08
30	-2.50	+2.60	0	SIZE:1.08
31	-1.50	+2.60	0	SIZE:1.08
32	-0.50	+2.60	0	SIZE:1.08
33	+0.50	+2.60	0	SIZE:1.08
34	+1.50	+2.60	0	SIZE:1.08
35	+2.50	+2.60	0	SIZE:1.08
36	+3.50	+2.60	0	SIZE:1.08
37	+4.50	+2.60	0	SIZE:1.08
38	+5.50	+2.60	3	SIZE:1.08,ROTATE:300
39	-5.00	+1.73	0	SIZE:1.08
40	-4.00	+1.73	0	SIZE:1.08
41	-3.00	+1.73	0	SIZE:1.08
42	-2.00	+1.73	0	SIZE:1.08
43	-1.00	+1.73	0	SIZE:1.08
44	+0.00	+1.73	4	SIZE:1.08
45	+1.00	+1.73	0	SIZE:1.08
46	+2.00	+1.73	0	SIZE:1.08
47	+3.00	+1.73	0	SIZE:1.08
48	+4.00	+1.73	0	SIZE:1.08
49	+5.00	+1.73	0	SIZE:1.08
50	-5.50	+0.87	2	SIZE:1.08,ROTATE:180
51	-4.50	+0.87	0	SIZE:1.08
52	-3.50	+0.87	0	SIZE:1.08
53	-2.50	+0.87	0	SIZE:1.08
54	-1.50	+0.87	0	SIZE:1.08
55	-0.50	+0.87	0	SIZE:1.08
56	+0.50	+0.87	0	SIZE:1.08
57	+1.50	+0.87	0	SIZE:1.08
58	+2.50	+0.87	0	SIZE:1.08
59	+3.50	+0.87	0	SIZE:1.08
60	+4.50	+0.87	0	SIZE:1.08
61	+5.50	+0.87	2	SIZE:1.08
62	-5.00	+0.00	0	SIZE:1.08
63	-4.00	+0.00	0	SIZE:1.08
64	-3.00	+0.00	0	SIZE:1.08
65	-2.00	+0.00	0	SIZE:1.08
66	-1.00	+0.00	0	SIZE:1.08
67	+0.00	+0.00	0	SIZE:1.08
68	+1.00	+0.00	0	SIZE:1.08
69	+2.00	+0.00	0	SIZE:1.08
70	+3.00	+0.00	0	SIZE:1.08
71	+4.00	+0.00	0	SIZE:1.08
72	+5.00	+0.00	0	SIZE:1.08
73	-5.50	-0.87	2	SIZE:1.08,ROTATE:180
74	-4.50	-0.87	0	SIZE:1.08
75	-3.50	-0.87	0	SIZE:1.08
76	-2.50	-0.87	0	SIZE:1.08
77	-1.50	-0.87	0	SIZE:1.08
78	-0.50	-0.87	0	SIZE:1.08
79	+0.50	-0.87	0	SIZE:1.08
80	+1.50	-0.87	0	SIZE:1.08
81	+2.50	-0.87	0	SIZE:1.08
82	+3.50	-0.87	0	SIZE:1.08
83	+4.50	-0.87	0	SIZE:1.08
84	+5.50	-0.87	2	SIZE:1.08
85	-5.00	-1.73	0	SIZE:1.08
86	-4.00	-1.73	0	SIZE:1.08
87	-3.00	-1.73	0	SIZE:1.08
88	-2.00	-1.73	0	SIZE:1.08
89	-1.00	-1.73	0	SIZE:1.08
90	+0.00	-1.73	0	SIZE:1.08
91	+1.00	-1.73	0	SIZE:1.08
92	+2.00	-1.73	0	SIZE:1.08
93	+3.00	-1.73	0	SIZE:1.08
94	+4.00	-1.73	0	SIZE:1.08
95	+5.00	-1.73	0	SIZE:1.08
96	-5.50	-2.60	3	SIZE:1.08,ROTATE:120
97	-4.50	-2.60	0	SIZE:1.08
98	-3.50	-2.60	0	SIZE:1.08
99	-2.50	-2.60	0	SIZE:1.08
100	-1.50	-2.60	0	SIZE:1.08
101	-0.50	-2.60	0	SIZE:1.08
102	+0.50	-2.60	0	SIZE:1.08
103	+1.50	-2.60	0	SIZE:1.08
104	+2.50	-2.60	0	SIZE:1.08
105	+3.50	-2.60	0	SIZE:1.08
106	+4.50	-2.60	0	SIZE:1.08
107	+5.50	-2.60	3	SIZE:1.08,INVERT:1,ROTATE:240
108	-5.00	-3.46	3	SIZE:1.08,INVERT:1,ROTATE:120
109	-4.00	-3.46	0	SIZE:1.08
110	-3.00	-3.46	0	SIZE:1.08
111	-2.00	-3.46	0	SIZE:1.08
112	-1.00	-3.46	0	SIZE:1.08
113	+0.00	-3.46	4	SIZE:1.08
114	+1.00	-3.46	0	SIZE:1.08
115	+2.00	-3.46	0	SIZE:1.08
116	+3.00	-3.46	0	SIZE:1.08
117	+4.00	-3.46	0	SIZE:1.08
118	+5.00	-3.46	3	SIZE:1.08,ROTATE:240
119	-3.50	-4.33	2	SIZE:1.08,ROTATE:240
120	-2.50	-4.33	0	SIZE:1.08
121	-1.50	-4.33	0	SIZE:1.08
122	-0.50	-4.33	0	SIZE:1.08
123	+0.50	-4.33	0	SIZE:1.08
124	+1.50	-4.33	0	SIZE:1.08
125	+2.50	-4.33	0	SIZE:1.08
126	+3.50	-4.33	2	SIZE:1.08,ROTATE:300
127	-2.00	-5.20	2	SIZE:1.08,ROTATE:240
128	-1.00	-5.20	0	SIZE:1.08
129	+0.00	-5.20	0	SIZE:1.08
130	+1.00	-5.20	0	SIZE:1.08
131	+2.00	-5.20	2	SIZE:1.08,ROTATE:300
132	-0.50	-6.06	3	SIZE:1.08,ROTATE:180
133	+0.50	-6.06	3	SIZE:1.08,INVERT:1,ROTATE:180
134	+0.00	+1.73	5	SIZE:0.5
135	+0.00	-3.46	5	SIZE:0.5
136	+5.50	-3.90	6	SIZE:0.4
137	+5.50	-4.33	6	SIZE:0.4
138	+5.50	-4.76	6	SIZE:0.4
139	+5.50	-5.20	6	SIZE:0.4
140	+6.50	-3.90	6	SIZE:0.4
141	+6.50	-4.33	6	SIZE:0.4
142	+6.50	-4.76	6	SIZE:0.4
143	+6.50	-5.20	6	SIZE:0.4
144	+0.00	+0.00	1	SIZE:13
145	-6.50	-3.90	6	SIZE:0.4
146	-6.50	-4.33	6	SIZE:0.4
147	-6.50	-4.76	6	SIZE:0.4
148	-6.50	-5.20	6	SIZE:0.4
149	-5.50	-3.90	6	SIZE:0.4
150	-5.50	-4.33	6	SIZE:0.4
151	-5.50	-4.76	6	SIZE:0.4
152	-5.50	-5.20	6	SIZE:0.4
